{
  "$schema": "../../../node_modules/ng-packagr/ng-package.schema.json",
  "dest": "../../../dist/telavant/astq",
  "lib": {
    "entryFile": "src/public-api.ts",
    "umdModuleIds": {
      "astq": "ASTQ",
      "typescript": "typescript"
    }
  },
  "assets": [
    "astq.js"
  ],
  "whitelistedNonPeerDependencies": [
    "astq",
    "typescript"
  ]
}
