{
  "$schema": "http://json-schema.org/schema",
  "id": "TelavantPlatformMySQLConfiguration",
  "title": "MySQL Configuration Schema",
  "type": "object",
  "properties": {
    "type": {
      "enum": ["mysql"],
      "description": "The database type to configure.",
      "default": "mysql",
      "visible": false
    },

    "host": {
      "type": "string",
      "description": "The hostname of the MySQL server.",
      "default": "localhost",
      "x-prompt": "Host: [localhost]"
    },

    "port": {
      "type": "integer",
      "description": "The MySQL port number to connect to.",
      "default": "3306",
      "x-prompt": "Port: [3306]"
    },

    "database": {
      "type": "string",
      "description": "The name of the MySQL database to use.",
      "default": "",
      "x-prompt": "Database:"
    },

    "username": {
      "type": "string",
      "description": "The MySQL username to login with.",
      "default": "root",
      "x-prompt": "Username: [root]"
    },

    "password": {
      "type": "string",
      "description": "The MySQL password to login with.",
      "default": "",
      "x-prompt": "Password:"
    },

    "skipInstall": {
      "description": "When true, does not install packages for dependencies.",
      "type": "boolean",
      "default": false
    }
  }
}
