{
  "$schema": "../../../node_modules/@angular-devkit/schematics/collection-schema.json",
  "extends": [
    "@schematics/angular"
  ],
  "schematics": {
    "ng-add": {
      "description": "Configure @telavant/schematics for this project.",
      "factory": "./add",
      "schema": "./add/schema.json"
    },
    "admin": {
      "description": "Generate an administration module.",
      "factory": "./admin",
      "schema": "./admin/schema.json"
    },
    "resource": {
      "description": "Generate a basic data model and service with RESTful backend routing.",
      "factory": "./resource",
      "schema": "./resource/schema.json"
    },
    "state": {
      "description": "Generate NGXS state management code.",
      "factory": "./state",
      "schema": "./state/schema.json"
    },
    "config-mysql": {
      "description": "Configure ormconfig.json for MySQL.",
      "factory": "./config",
      "schema": "./config/mysql/schema.json"
    },
    "config-sqlite": {
      "description": "Configure ormconfig.json for SQLite.",
      "factory": "./config",
      "schema": "./config/sqlite/schema.json"
    },
    "mail": {
      "description": "Configure a backend route to send mail through an SMTP server.",
      "factory": "./mail",
      "schema": "./mail/schema.json"
    },
    "contact": {
      "description": "Configure a contact form component to send mail through an SMTP server.",
      "factory": "./contact",
      "schema": "./contact/schema.json"
    }
  }
}
