{
  "$schema": "../../../node_modules/ng-packagr/ng-package.schema.json",
  "dest": "../../../dist/telavant/server",
  "lib": {
    "umdModuleIds": {
      "@telavant/platform": "telavantPlatform",
      "body-parser": "bodyParser",
      "chokidar": "chokidar",
      "cors": "cors",
      "compression": "compression",
      "express": "express",
      "fs": "fs",
      "nodemailer": "nodemailer",
      "typeorm": "typeorm"
    },
    "entryFile": "src/public-api.ts"
  }
}
